<?xml version="1.0" encoding="UTF-8" standalone="no"?>
<!DOCTYPE svg PUBLIC "-//W3C//DTD SVG 1.1//EN"
"http://www.w3.org/Graphics/SVG/1.1/DTD/svg11.dtd">


<!-- Page 16 -->
<svg x="0" y="0" width="110" height="110" viewBox="0 0 110 110" version="1.1" xmlns="http://www.w3.org/2000/svg" xmlns:xlink="http://www.w3.org/1999/xlink"
style="display: block;margin-left: auto;margin-right: auto;">
<defs>

<style type="text/css"><![CDATA[

.g0_16{
fill: #1A7AA8;
}

]]></style>

</defs>
<path d="M0,0
L0,110
L110,110
L110,0 Z " 
fill="#FFFFFF" stroke="none" />
<path d="M55.3,13.9c12.8,.1,25.2,6.3,32.9,16.5c7.7,10.3,10.3,24.3,6.5,36.8C91.1,78.8,82.2,88.6,71,93.3c-10,4.2,-21.6,4.2,-31.7,0C26.2,87.8,16.3,75.3,14.3,61C12.8,50.3,15.6,39.1,22.1,30.5C29.5,20.6,41.5,14.2,54.2,13.9c.4,0,.7,0,1.1,0ZM55,15.5c-12.2,0,-24.3,6.1,-31.6,15.9C16,41.3,13.6,54.6,17.1,66.5c3.4,11.3,12,20.8,22.8,25.4c9.7,4,20.9,4,30.5,0C81.2,87.4,89.8,78,93.2,66.8C96.8,54.9,94.5,41.4,86.9,31.3C80,22.2,69.1,16.2,57.5,15.6c-.8,-.1,-1.6,-.1,-2.5,-.1Z" class="g0_16" />
<path fill-rule="evenodd" d="M51.8,69.6H30.9V33.1H79.4V69.6H58.5v5.3h8.1c1.3,0,2.3,1,2.3,2.3H41.4c0,-1.3,1,-2.3,2.4,-2.3h8ZM76.1,36.5H34.4V63.3H76.1Z" class="g0_16" />
<path d="M55.2,40.8c4.2,0,8.1,3,9,6.9c.6,2.9,-.4,6,-2.6,8c-1.6,1.5,-3.9,2.4,-6.2,2.5c-.2,0,-.4,0,-.6,0c-1.1,-.1,-2.1,-.3,-3.1,-.6C47.8,56.1,45.4,51.9,46.1,48c.7,-3.9,4.5,-7.1,8.9,-7.2c0,0,.1,0,.1,0q.1,0,.1,0Zm3.2,12.9H51.8c.4,1,.9,2,1.7,2.8c.5,.5,1.3,.9,2.1,.7c1.5,-.3,2.2,-1.9,2.7,-3.2c.1,-.1,.1,-.2,.1,-.3Zm3.6,0H59.6c-.4,1.1,-1,2.2,-1.8,3.1C59.5,56.2,61,55.1,62,53.7Zm-11.1,0H48.4c.9,1.4,2.3,2.5,4,3.1c-.7,-.9,-1.2,-2,-1.5,-3.1Zm-.5,-6.9h-3c-.1,.4,-.2,.7,-.3,1.1c-.4,1.6,-.1,3.3,.7,4.8h2.8c-.4,-1.9,-.5,-4,-.2,-5.9Zm8.6,0H51.4c-.2,1.6,-.2,3.2,0,4.7c0,.4,.1,.8,.2,1.2h7.1c.5,-1.9,.7,-4,.3,-5.9Zm3.8,0H59.9c.4,2,.4,4,0,5.9h2.7c.4,-.6,.6,-1.3,.7,-2c.2,-1.3,0,-2.7,-.5,-3.9ZM52.5,42.1c-1.9,.7,-3.6,2,-4.6,3.7h2.7c.4,-1.3,1,-2.6,1.9,-3.6q0,-.1,0,-.1Zm2.6,-.4v0c-1.2,0,-2.1,1.1,-2.5,2c-.4,.7,-.7,1.4,-.9,2.1h7.1c-.4,-1.2,-1,-2.4,-1.9,-3.3c-.5,-.4,-1.1,-.8,-1.7,-.8Zm2.7,.4c.4,.5,.8,1.2,1.1,1.7c.3,.7,.5,1.3,.7,2h2.7c-1,-1.6,-2.6,-3,-4.5,-3.7Z" class="g0_16" />

</svg>
